[
  {
    "fields": {
      "id": {
        "type": "input",
        "label": "ID",
        "value": "selectbasic"
      },
      "options": {
        "type": "textarea-split",
        "label": "Options",
        "value": [
          "Opção um",
          "Opção dois"
        ]
      },
      "label": {
        "type": "input",
        "label": "Label Text",
        "value": "Lista de valores"
      }
    },
    "title": "Select Basic"
  },
  {
    "fields": {
      "id": {
        "type": "input",
        "label": "ID",
        "value": "selectmultiple"
      },
      "options": {
        "type": "textarea-split",
        "label": "Options",
        "value": [
          "Opção um",
          "Opção dois"
        ]
      },
      "label": {
        "type": "input",
        "label": "Label Text",
        "value": "Lista de valores (seleção múltipla)"
      }
    },
    "title": "Select Multiple"
  }
]